<svg width="24" height="24" viewBox="0 0 24 24" fill="none" xmlns="http://www.w3.org/2000/svg">
<path d="M22.538 12.6334C23.0273 11.9869 23.2981 11.1948 23.2981 10.3706C23.2981 9.06299 22.5671 7.82528 21.3906 7.13507C21.0877 6.95741 20.7428 6.8639 20.3917 6.86423H13.4081L13.5828 3.28506C13.6236 2.42011 13.3178 1.59886 12.7237 0.972718C12.4321 0.6641 12.0804 0.418552 11.6902 0.251249C11.3 0.0839457 10.8796 -0.0015581 10.455 2.1493e-05C8.94066 2.1493e-05 7.60101 1.01931 7.19912 2.47836L4.69748 11.5355H4.68875V24H18.4434C18.7113 24 18.9734 23.9476 19.2151 23.8427C20.6014 23.2515 21.4954 21.8973 21.4954 20.3946C21.4954 20.0277 21.443 19.6665 21.3382 19.3171C21.8274 18.6706 22.0983 17.8784 22.0983 17.0542C22.0983 16.6873 22.0459 16.3262 21.941 15.9767C22.4303 15.3302 22.7011 14.5381 22.7011 13.7139C22.6953 13.3469 22.6429 12.9829 22.538 12.6334V12.6334ZM0 12.4674V23.0681C0 23.5835 0.416454 24 0.931925 24H2.8249V11.5355H0.931925C0.416454 11.5355 0 11.952 0 12.4674Z" fill="white"/>
</svg>
