<svg width="16" height="13" viewBox="0 0 16 13" fill="none" xmlns="http://www.w3.org/2000/svg">
<path d="M13.25 0.25H2.75C2.15326 0.25 1.58097 0.487053 1.15901 0.90901C0.737053 1.33097 0.5 1.90326 0.5 2.5V10C0.5 10.5967 0.737053 11.169 1.15901 11.591C1.58097 12.0129 2.15326 12.25 2.75 12.25H13.25C13.8467 12.25 14.419 12.0129 14.841 11.591C15.2629 11.169 15.5 10.5967 15.5 10V2.5C15.5 1.90326 15.2629 1.33097 14.841 0.90901C14.419 0.487053 13.8467 0.25 13.25 0.25ZM12.7475 1.75L8 5.3125L3.2525 1.75H12.7475ZM13.25 10.75H2.75C2.55109 10.75 2.36032 10.671 2.21967 10.5303C2.07902 10.3897 2 10.1989 2 10V2.6875L7.55 6.85C7.67982 6.94737 7.83772 7 8 7C8.16228 7 8.32018 6.94737 8.45 6.85L14 2.6875V10C14 10.1989 13.921 10.3897 13.7803 10.5303C13.6397 10.671 13.4489 10.75 13.25 10.75Z" fill="black"/>
</svg>
