<svg width="11" height="16" viewBox="0 0 11 16" fill="none" xmlns="http://www.w3.org/2000/svg">
<path d="M1.82904 0.579107L2.63604 0.321107C3.39279 0.0796074 4.20129 0.470357 4.52529 1.23386L5.17029 2.75486C5.45079 3.41711 5.29479 4.19636 4.78479 4.68086L3.36354 6.02936C3.45129 6.83636 3.72279 7.63061 4.17729 8.41211C4.60889 9.16821 5.18782 9.83002 5.87979 10.3584L7.58679 9.78836C8.23329 9.57311 8.93829 9.82136 9.33429 10.4041L10.259 11.7616C10.7203 12.4396 10.637 13.3741 10.0648 13.9486L9.45204 14.5644C8.84154 15.1771 7.96929 15.3999 7.16304 15.1479C5.25804 14.5539 3.50829 12.7906 1.91079 9.85811C0.311037 6.92111 -0.253713 4.42811 0.217287 2.38211C0.415287 1.52111 1.02804 0.834857 1.82904 0.579107Z" fill="black"/>
</svg>
