<svg width="22" height="24" viewBox="0 0 22 24" fill="none" xmlns="http://www.w3.org/2000/svg">
<path d="M5.16846 13.812L17.3212 1.65918L19.8959 4.23384L7.74312 16.3866L5.16846 13.812Z" fill="white"/>
<path d="M4.03226 16.6124C3.98009 16.782 3.99146 16.9647 4.06445 17.1264C4.13744 17.288 4.26699 17.4176 4.42857 17.4905C4.59031 17.5635 4.77301 17.5749 4.94258 17.5227L7.12728 16.7945L4.76052 14.4277L4.03226 16.6124Z" fill="white"/>
<path d="M21.1822 1.13803L20.4176 0.373385C20.1786 0.134432 19.8544 0 19.5164 0C19.1785 0 18.8542 0.134432 18.6152 0.373385L17.8359 1.13803L20.4176 3.71969L21.1896 2.94772C21.4298 2.70746 21.5642 2.38123 21.5628 2.04133C21.5615 1.7016 21.4245 1.37635 21.1823 1.13803H21.1822Z" fill="white"/>
<path d="M-9.08574e-08 21.9214C-4.02067e-08 23.0802 0.929151 24 2.07031 24L19.6702 24C20.8114 24 21.7405 23.0802 21.7405 21.9214L21.7405 8.85025C21.7405 7.69149 20.8114 6.77168 19.6702 6.77168L2.07031 6.77168C0.92915 6.77168 -7.12869e-07 7.69145 -6.62217e-07 8.85025L-9.08574e-08 21.9214ZM2.07031 8.3094L19.6702 8.3094C19.9679 8.3094 20.207 8.53934 20.207 8.85495L20.207 21.9216C20.207 22.2327 19.9679 22.4671 19.6702 22.4671L2.07031 22.4671C1.77262 22.4671 1.53355 22.2372 1.53355 21.9216L1.53355 8.85042C1.53355 8.5393 1.7726 8.30936 2.07031 8.30936L2.07031 8.3094Z" fill="white"/>
</svg>
