<svg width="17" height="17" viewBox="0 0 17 17" fill="none" xmlns="http://www.w3.org/2000/svg">
<path d="M0.670593 4.31189L4.33795 0.644531L16.7624 13.069L13.0951 16.7364L0.670593 4.31189Z" fill="white"/>
</svg>
