<svg width="44" height="44" viewBox="0 0 44 44" fill="none" xmlns="http://www.w3.org/2000/svg">
<path d="M15.2108 12.126C17.8369 11.6593 20.023 12.486 21.6728 14.659C21.9615 15.0323 22.0441 15.0323 22.319 14.659C24.5053 11.686 28.6436 11.1261 31.5309 13.3925C34.6106 15.8323 34.8581 20.5648 31.9984 23.2578C30.8847 24.311 29.6886 25.2575 28.5337 26.2574C26.4988 27.9905 24.4639 29.697 22.4291 31.43C21.5355 32.19 21.5492 32.2033 20.6967 31.39C18.0157 28.8703 15.3346 26.3239 12.6261 23.831C11.6224 22.9112 10.7973 21.9246 10.3437 20.6181C10.1101 19.9382 10.0413 19.2317 10 18.6584C10.0136 15.3922 12.186 12.6592 15.2107 12.126L15.2108 12.126Z" stroke="#EB1C24" stroke-width="3" stroke-miterlimit="10"/>
</svg>
