<svg width="28" height="24" viewBox="0 0 28 24" fill="none" xmlns="http://www.w3.org/2000/svg">
<path d="M7.2108 2.12599C9.83686 1.65931 12.023 2.48595 13.6728 4.65897C13.9615 5.03228 14.0441 5.03228 14.319 4.65897C16.5053 1.68605 20.6436 1.12613 23.5309 3.3925C26.6106 5.8323 26.8581 10.5648 23.9984 13.2578C22.8847 14.311 21.6886 15.2575 20.5337 16.2574C18.4988 17.9905 16.4639 19.697 14.4291 21.43C13.5355 22.19 13.5492 22.2033 12.6967 21.39C10.0157 18.8703 7.33461 16.3239 4.62606 13.831C3.62238 12.9112 2.7973 11.9246 2.34373 10.6181C2.11006 9.93822 2.04127 9.23167 2 8.65841C2.01355 5.3922 4.18595 2.65925 7.21073 2.12599L7.2108 2.12599Z" stroke="white" stroke-width="3" stroke-miterlimit="10"/>
</svg>
